drug_NSC-87877_16
drug_RUCAPARIB_5
drug_GW441756_2
drug_RO-3306_5
drug_NU7441_2
drug_JNK INHIBITOR VIII_10
drug_TRETINOIN_10
drug_FTI-277_1.024
drug_DORAMAPIMOD_10
drug_SGC0946_0.5
drug_GW-2580_20
drug_STF-62247_10.24
drug_IOX2_0.1
drug_WEE1 INHIBITOR_2
drug_CCT007093_6.6
drug_PF-4708671_10
drug_PALBOCICLIB_4
drug_LFM-A13_16
drug_XMD14-99_10.24
drug_BICALUTAMIDE_10
drug_GEFITINIB_0.5
drug_RUXOLITINIB_5.24
