drug_LFM-A13_16
drug_BMS-754807_2.56
drug_LINSITINIB_2.56
drug_BICALUTAMIDE_1.024
drug_BRYOSTATIN 1_0.008
drug_KIN001-270_20
drug_GEFITINIB_0.5
drug_AZD6482_5
drug_MK-2206_4
drug_AFATINIB_0.5
drug_VISMODEGIB_10
drug_PICTILISIB_4
