drug_JW-7-52-1_1.2
drug_RAPAMYCIN_0.1
drug_A-770041_5.12
drug_PACLITAXEL_0.1024
drug_WH-4-023_5.12
drug_DASATINIB_1.28
drug_MG-132_1
drug_TOZASERTIB_2
drug_BI-2536_0.256
drug_BMS-536924_5.12
drug_SUNITINIB_8
drug_CGP-60474_0.256
