,K,r1,L1,L2,r2,d1,No. repetitions,tolerance,last_stop_control,ObjectiveFunction,rho_0_drug,rho_1_mirna,rss_ccle_0_drug,rss_ccle_1_mirna,rss_tcga_1_mirna,rss_tcga_0_drug,r2_ccle_0_drug,r2_ccle_1_mirna,r2_tcga_1_mirna,r2_tcga_0_drug
0,30.0,0.0035,10.0,10.0,0.0035,0.0035,30.0,1e-07,0.0,18207.006228252878,1.0,0.8247754022024786,1238.158924318723,3140.6404366707775,3377.7309491560604,0.0,0.9862258042759714,0.7248244221203457,0.8904356706577851,1.0
1.0,60.0,0.0035,10.0,10.0,0.0035,0.0035,30.0,1e-07,0.0,12452.59805453459,1.0,0.9021551471549447,1094.1058693853918,2750.0577961734057,2847.6118138584225,0.0,0.9848532395512425,0.7097369500871984,0.8873280711264451,1.0
